[
{
    "name": "iTunes",

        "play_pause":"tell app \"iTunes\" to playpause",

        "previous":"tell app \"iTunes\" to back track",

        "next":"tell app \"iTunes\" to next track",

        "rewind":
        "tell application \"iTunes\"\n
        if player state is playing then\n
        rewind\n
        delay 0.5
        tell application \"iTunes\" to resume\n
        end if\n
        end tell",

        "fast_forward":
        "tell application \"iTunes\"\n
        if player state is playing then\n
        fast forward\n
        delay 0.5\n
        tell application \"iTunes\" to resume\n
        end if\n
        end tell",

        "info":
        "tell application \"iTunes\"\n
         	return artist of current track & \" - \" & name of current track\n
        end tell"

},
{
    "name": "Spotify",

        "play_pause":"tell application \"Spotify\" to playpause",

        "previous":"tell application \"Spotify\" to previous track",

        "next":"tell application \"Spotify\" to next track",

        "info":
        "tell application \"Spotify\"\n
        return artist of current track & \" - \" & name of current track\n
        end tell"

},
{
     "name": "Rdio",
 
         "play_pause":"tell application \"Rdio\" to playpause",
 
         "previous":"tell application \"Rdio\" to previous track",
 
         "next":"tell application \"Rdio\" to next track",

         "info":
         "tell application \"Rdio\"\n
          	return artist of current track & \" - \" & name of current track\n
         end tell"

},
{
    "name": "QuickTime Player",

        "play_pause":
        "tell application \"QuickTime Player\"\n
        if document 1 is playing then\n
        pause document 1\n
        else\n
        play document 1\n
        end if\n
        end tell",
        
        "previous":
        "tell application \"QuickTime Player\"\n
        step backward document 1 by 10\n
        end tell",
                
        "next":
        "tell application \"QuickTime Player\"\n
        step backward document 1 by 10\n
        end tell",
                         
        "next":
        "tell application \"QuickTime Player\"\n
        step forward document 1 by 10\n
        end tell",
                        
        "rewind":
        "tell application \"QuickTime Player\"\n
        set rate of document 1 to -4.0\n
        end tell",
              
              
        "forward":
        "tell application \"QuickTime Player\"\n
        set rate of document 1 to 4.0\n
        end tell"

},

{
    "name": "MPlayerX",

        "play_pause":"tell application \"MplayerX\" to playpause",

        "previous":"tell application \"MplayerX\" to goto previous episode",

        "next":"tell application \"MplayerX\" to goto next episode"

},

{
    "name": "VLC",

        "play_pause":"tell app \"VLC\" to play",

        "previous":"tell app \"VLC\" to previous",

        "next":"tell app \"VLC\" to next",
        
        "rewind":"tell app \"VLC\" to step backward 2",
        
        "fast_forward":"tell app \"VLC\" to step forward 2",

        "info":"tell app \"VLC\" to return name of current item"

},

{
    "name": "Keynote",

        "play_pause":
        "tell application \"Keynote\"\n
        if playing then\n
        stop document 1\n
        else\n
        start document 1\n
        end if\n
        end tell",

        "previous":
        "tell application \"Keynote\"\n
        show previous\n
        end tell",

        "next":
        "tell application \"Keynote\"\n
        show next\n
        end tell"

},

{
    "name": "iPhoto",

        "play_pause":
        "set thePath to (get path to scripts folder from user domain as text) & \"macRemoteAndroid.scpt\"\n
        script theData\n
        property IsPaused : missing value\n
        end script\n
        try\n
        set theData to load script file thePath\n
        on error\n
        set IsPaused of theData to false\n
        end try\n
        tell application \"iPhoto\"\n
            if slideshow running then\n
                if isPaused of theData then\n
                    resume slideshow\n
                    set isPaused of theData to false\n
                else\n
                    pause slideshow\n
                    set isPaused of theData to true\n
                end if\n
            else\n
                start slideshow\n
                set isPaused of theData to false\n
            end if\n
        end tell\n
        store script theData in file thePath replacing yes\n
        return IsPaused of theData",

        "previous":
        "tell application \"iPhoto\"\n
        previous slide\n
        end tell",

        "next":
        "tell application \"iPhoto\"\n
        next slide\n
        end tell",

        "info":"tell application \"iPhoto\" to return \"album: \" & name of current album"

}

]